<?xml version="1.0" encoding="utf-8"?>
<!-- Generator: Adobe Illustrator 24.3.0, SVG Export Plug-In . SVG Version: 6.00 Build 0)  -->
<svg version="1.1" id="Layer_1" xmlns="http://www.w3.org/2000/svg" xmlns:xlink="http://www.w3.org/1999/xlink" x="0px" y="0px"
	 viewBox="0 0 235.8 39.2" style="enable-background:new 0 0 235.8 39.2;" xml:space="preserve">
<style type="text/css">
	.st0{fill:#FFFFFF;}
</style>
<g>
	<path class="st0" d="M67.5,37.2c2.9,0,5.7-1.8,7.9-4.2l-0.3-0.5c-1.2,0.9-2.7,1.6-4.5,1.6c-2.8,0-4.1-1.4-4.1-4.3l0.3-14h7.6
		l0.8-2.5h-8.3L66.9,8l-0.8-0.2l-5,4l-3.4,2.6l-0.5,1.4l4.3,0.2l-0.3,14.6C61.3,35.1,63.5,37.2,67.5,37.2 M35.6,36.5h13l-0.2-0.9
		l-1.6-0.1c-2.2-0.1-2.6-0.3-2.6-0.8V22.8c1.3-4.2,2.8-6.4,4.6-7c0.3,1.9,1.7,3,3.4,3c1.9,0,3.1-1.6,3.1-3.2c0-1.9-1.6-3.3-3.7-3.3
		c-3.2,0-5.4,2.9-7.2,8.1h-0.2l0.1-8l-8.9,2.4l-0.1,0.6l1.2,0.3c1.8,0.4,2.3,1,2.3,4.3v14.6c0,0.6-0.6,0.8-2.2,0.9l-1,0.1L35.6,36.5
		z M12.6,21.6l4.6-13.1h0.2l4.1,13.1H12.6z M21.9,22.7l2.3,7.4c1.2,3.8,1.2,5.1-1.4,5.3L21,35.6l-0.2,0.9h15.9l-0.2-0.9l-1.8-0.2
		c-2.1-0.2-2.8-1-4.2-5.2L21.2,1.8h-0.8c-0.6,1.3-2.9,3.1-4.3,3.6l0.5,1.8l-6.1,17C6.8,34.3,6.2,35,3.1,35.5l-1,0.2L2,36.5h12
		l-0.2-0.9l-1.4-0.2c-4.2-0.4-4.1-1.5-1.9-7.8l1.7-4.9H21.9z"/>
	<path class="st0" d="M218.2,20.4c0.6-4,3-7.1,5.8-7.1c3,0,4.2,3.3,4.1,7C228.2,20.4,218.2,20.4,218.2,20.4 M223.4,37.3
		c4.8,0,8.2-2.7,10.4-7.3l-0.6-0.3c-1.8,2.9-4.2,3.9-7,3.9c-4.8,0-8.2-4.1-8.2-10.1c0-0.5,0.1-1.6,0.2-2.1c0.5,0,15.3,0.2,15.3,0.2
		c0.1-0.5,0.2-1,0.2-1.5c0-4.4-3.3-7.7-8.9-7.7c-7.1,0-12.4,5.7-12.4,13.1C212.3,32.2,217,37.3,223.4,37.3 M200.5,37.3
		c4.7,0,8-2.7,10.3-7.3l-0.6-0.3c-1.8,2.9-4,3.9-6.8,3.9c-4.8,0-8.2-4-8.2-10.3c0-6,3-9.9,6.9-9.9c1.4,0,2.9,0.8,3,1.4
		c0,0.3-0.8,1-0.8,2.2c-0.2,1.9,1.1,3.6,3,3.6c1.6,0,3-1.2,3-3c0-3.1-3.6-5.2-8.3-5.2c-7.3,0-12.6,5.7-12.6,13.1
		C189.5,32.2,194.2,37.3,200.5,37.3 M169.3,36.5h13l-0.2-0.9l-1.6-0.1c-2.2-0.1-2.6-0.3-2.6-0.8V22.8c1.4-4.2,2.8-6.4,4.6-7
		c0.3,1.9,1.7,3,3.4,3c1.9,0,3.1-1.6,3.1-3.2c0-1.9-1.6-3.3-3.7-3.3c-3.2,0-5.4,2.9-7.2,8.1H178l0.1-8l-8.9,2.4l-0.1,0.6l1.2,0.3
		c1.8,0.4,2.3,1,2.3,4.3v14.6c0,0.6-0.6,0.8-2.2,0.9l-1,0.1L169.3,36.5z M159.1,37.3l8.9-2.1l0.1-0.6l-2.5-0.6c-0.8-0.2-1-0.6-1-2
		V13.1h-9.1l0.2,0.8l1,0.1c2.2,0.2,2.6,0.4,2.6,1.8v15.8c-1.2,1-2.9,1.9-5.1,1.9c-3.1,0-4.7-1.3-4.7-5.2l0.2-15.2h-9.1l0.2,0.8
		l0.9,0.1c2.5,0.2,2.7,0.3,2.7,0.8l-0.1,14.8c0,2.5,0.5,4.5,1.8,5.8c1.2,1.1,2.5,1.7,4.3,1.7c3.5,0,6.5-2.3,9-4.5h0.2L159.1,37.3z
		 M127.6,36.2c-1.7,0-3-0.7-3.9-1.7c-1.9-1.9-2.8-5.7-2.8-10.5c0-5.8,2.3-10.6,6.5-10.6c1.8,0,3,0.8,3.8,1.6
		c1.8,1.9,2.8,5.7,2.8,10.5C134,31.4,131.6,36.2,127.6,36.2 M127.3,37.2c7.5,0,12.9-5.6,12.9-12.7c0-6.8-5-12.1-12.5-12.1
		c-7.4,0-12.9,5.6-12.9,12.5C114.8,31.7,119.7,37.2,127.3,37.2 M99.3,37.2c7.7,0,12.6-5.4,12.6-10.7c0-6-4.2-8.5-10.2-10.6
		c-4.3-1.6-7.8-3.1-7.8-7.2c0-3.1,2.5-5.6,6.2-5.6c2.3,0,4,0.7,5.6,1.6L109,12h1l-0.1-9.7l-2.3,0.8c-2-0.5-4.4-1.1-7.3-1.1
		C93.2,2,89.2,6.7,89.2,11.6c0,5.6,4.2,7.9,9.5,9.8c4.8,1.7,8.2,3.4,8.2,7.8c0,3.9-2.7,6.9-7.2,6.9c-3.4,0-6.3-1.5-8.2-4.6l-1.9-4.9
		h-1.1l0.5,8.9C91.8,36.4,95.5,37.2,99.3,37.2"/>
</g>
</svg>
